{
    "key": "group_5cd54175ec5ab",
    "title": "Template: Tabs Page",
    "fields": [
        {
            "key": "field_5cd5417628117",
            "label": "Tabs",
            "name": "",
            "type": "tab",
            "instructions": "",
            "required": 0,
            "conditional_logic": 0,
            "wrapper": {
                "width": "",
                "class": "",
                "id": ""
            },
            "wpml_cf_preferences": 0,
            "placement": "left",
            "endpoint": 0
        },
        {
            "key": "field_5cd5417628309",
            "label": "Tab",
            "name": "tab",
            "type": "repeater",
            "instructions": "",
            "required": 0,
            "conditional_logic": 0,
            "wrapper": {
                "width": "",
                "class": "",
                "id": ""
            },
            "wpml_cf_preferences": 0,
            "collapsed": "",
            "min": 0,
            "max": 0,
            "layout": "block",
            "button_label": "Add Tab",
            "sub_fields": [
                {
                    "key": "field_5cd5417631e4c",
                    "label": "Tab Title",
                    "name": "tab_title",
                    "type": "text",
                    "instructions": "",
                    "required": 0,
                    "conditional_logic": 0,
                    "wrapper": {
                        "width": "0",
                        "class": "",
                        "id": ""
                    },
                    "wpml_cf_preferences": 0,
                    "default_value": "",
                    "placeholder": "",
                    "prepend": "",
                    "append": "",
                    "maxlength": ""
                },
                {
                    "key": "field_5cd54176320c9",
                    "label": "Tab Subtitle",
                    "name": "tab_subtitle",
                    "type": "text",
                    "instructions": "",
                    "required": 0,
                    "conditional_logic": 0,
                    "wrapper": {
                        "width": "0",
                        "class": "",
                        "id": ""
                    },
                    "wpml_cf_preferences": 0,
                    "default_value": "",
                    "placeholder": "",
                    "prepend": "",
                    "append": "",
                    "maxlength": ""
                },
                {
                    "key": "field_5cd541763226b",
                    "label": "Tab Subtitle 2nd",
                    "name": "tab_subtitle_2",
                    "type": "text",
                    "instructions": "",
                    "required": 0,
                    "conditional_logic": 0,
                    "wrapper": {
                        "width": "0",
                        "class": "",
                        "id": ""
                    },
                    "wpml_cf_preferences": 0,
                    "default_value": "",
                    "placeholder": "",
                    "prepend": "",
                    "append": "",
                    "maxlength": ""
                },
                {
                    "key": "field_5cd5417632485",
                    "label": "Information",
                    "name": "information",
                    "type": "wysiwyg",
                    "instructions": "",
                    "required": 0,
                    "conditional_logic": 0,
                    "wrapper": {
                        "width": "",
                        "class": "",
                        "id": ""
                    },
                    "default_value": "",
                    "tabs": "all",
                    "toolbar": "full",
                    "media_upload": 1,
                    "delay": 0,
                    "wpml_cf_preferences": 0
                }
            ]
        }
    ],
    "location": [
        [
            {
                "param": "page_template",
                "operator": "==",
                "value": "page-templates\/tabs-page.php"
            }
        ]
    ],
    "menu_order": 0,
    "position": "normal",
    "style": "default",
    "label_placement": "top",
    "instruction_placement": "label",
    "hide_on_screen": [
        "the_content"
    ],
    "active": 1,
    "description": "",
    "modified": 1557479816
}